Fri Oct 18 16:31:16 CEST 2024
Preloading tcmalloc_minimal.so
Preloading libexcabort.so
ApplicationMgr    SUCCESS 
====================================================================================================================================
                                                   Welcome to ApplicationMgr (GaudiCoreSvc v39r0)
                                          running on lxplus973.cern.ch on Fri Oct 18 16:31:22 2024
====================================================================================================================================
ApplicationMgr       INFO Application Manager Configured successfully
Py:ComponentAccumulator    INFO Athena job with pid 150422
CoreDumpSvc          INFO Handling signals: 11(Segmentation fault) 7(Bus error) 4(Illegal instruction) 8(Floating point exception) 14(Alarm clock) 
AthenaEventLoopMgr   INFO Initializing AthenaEventLoopMgr
ClassIDSvc           INFO getRegistryEntries: read 12086 CLIDRegistry entries for module ALL
ClassIDSvc           INFO getRegistryEntries: read 84 CLIDRegistry entries for module ALL
PyComponentMgr       INFO Initializing PyComponentMgr...
LoadReadDicts        INFO Initializing LoadReadDicts...
ClassIDSvc           INFO getRegistryEntries: read 3280 CLIDRegistry entries for module ALL
ClassIDSvc           INFO getRegistryEntries: read 348 CLIDRegistry entries for module ALL
DecisionSvc          INFO Inserting stream: StreamStream1 with no Algs
AthDictLoaderSvc     INFO in initialize...
AthDictLoaderSvc     INFO acquired Dso-registry
Stream...ream1Tool   INFO Initializing StreamStream1.StreamStream1Tool
PoolSvc              INFO Set connectionsvc retry/timeout/IDLE timeout to  'ConnectionRetrialPeriod':300/ 'ConnectionRetrialTimeOut':3600/ 'ConnectionTimeOut':5 seconds with connection cleanup disabled
PoolSvc              INFO Frontier compression level set to 5
DBReplicaSvc         INFO Frontier server at (serverurl=http://atlasfrontier-local.cern.ch:8000/atlr)(serverurl=http://atlasfrontier-ai.cern.ch:8000/atlr)(proxyurl=http://ca-proxy-atlas.cern.ch:3128)(proxyurl=http://ca-proxy-meyrin.cern.ch:3128)(proxyurl=http://ca-proxy.cern.ch:3128)(proxyurl=http://atlasbpfrontier.cern.ch:3127) will be considered for COOL data
DBReplicaSvc         INFO Read replica configuration from /cvmfs/atlas-nightlies.cern.ch/repo/sw/main--dev3LCG_Athena_x86_64-el9-gcc14-opt/2024-10-13T1100/Athena/25.0.20/InstallArea/x86_64-el9-gcc14-opt/share/dbreplica.config
DBReplicaSvc         INFO Total of 10 servers found for host lxplus973.cern.ch [ATLF ATLAS_COOLPROD atlas_dd ATLAS_CONFIG INT8R INTR ATONR_COOL ATONR_CONF DEVDB11 ATLF ]
PoolSvc              INFO Successfully setup replica sorting algorithm
PoolSvc              INFO Setting up APR FileCatalog and Streams
PoolSvc              INFO POOL WriteCatalog is file:xAODTestReadFilter_rntup_catalog.xml
DbSession            INFO     Open     DbSession    
Domain[ROOT_All]     INFO >   Access   DbDomain     READ      [ROOT_All] 
ClassIDSvc           INFO getRegistryEntries: read 356 CLIDRegistry entries for module ALL
MetaDataSvc          INFO Initializing MetaDataSvc
MetaDataSvc          INFO Found MetaDataTools = PublicToolHandleArray([])
PoolSvc              INFO File is not in Catalog! Attempt to open it anyway.
DbSession            INFO     Open     DbSession    
Domain[ROOT_All]     INFO ->  Access   DbDatabase   READ      [ROOT_All] 171C822B-5AC8-9946-B896-0FF0FF0FF0FF
Domain[ROOT_All]     INFO                           xaoddata.rntup.root
RootDatabase.open    INFO xaoddata.rntup.root File version:63301
xaoddata.rn...root   INFO Database being retired...
Domain[ROOT_All]     INFO ->  Deaccess DbDatabase   READ      [ROOT_All] 171C822B-5AC8-9946-B896-0FF0FF0FF0FF
Domain[ROOT_All]     INFO >   Deaccess DbDomain     READ      [ROOT_All] 
StreamStream1        INFO Found HelperTools = PrivateToolHandleArray(['xAODMaker::EventFormatStreamHelperTool/Stream1_EventFormatStreamHelperTool','Athena::ThinningCacheTool/ThinningCacheTool_StreamStream1'])
StreamStream1        INFO Data output: xaoddata_filt.rntup.root
StreamStream1        INFO I/O reinitialization...
ClassIDSvc           INFO getRegistryEntries: read 281 CLIDRegistry entries for module ALL
ClassIDSvc           INFO getRegistryEntries: read 15 CLIDRegistry entries for module ALL
AthenaEventLoopMgr   INFO Setup EventSelector service EventSelector
ApplicationMgr       INFO Application Manager Initialized successfully
ApplicationMgr       INFO Application Manager Started successfully
DbSession            INFO     Open     DbSession    
Domain[ROOT_All]     INFO >   Access   DbDomain     READ      [ROOT_All] 
Domain[ROOT_All]     INFO ->  Access   DbDatabase   READ      [ROOT_All] 285180B9-5FD4-624E-9270-CB52CC843ADD
Domain[ROOT_All]     INFO                           xaoddata.rntup.root
RootDatabase.open    INFO xaoddata.rntup.root File version:63301
ClassIDSvc           INFO getRegistryEntries: read 15 CLIDRegistry entries for module ALL
EventP...stencySvc   INFO Added successfully Conversion service AthenaPoolCnvSvc
AlgResourcePool      INFO TopAlg list empty. Recovering the one of Application Manager
AthenaEventLoopMgr   INFO   ===>>>  start of run 0    <<<===
AthenaEventLoopMgr   INFO   ===>>>  start processing event #1, run #0 0 events processed so far  <<<===
ClassIDSvc           INFO getRegistryEntries: read 169 CLIDRegistry entries for module ALL
DbSession            INFO     Open     DbSession    
Domain[ROOT_All]     INFO >   Access   DbDomain     UPDATE    [ROOT_All] 
Domain[ROOT_All]     INFO ->  Access   DbDatabase   CREATE    [ROOT_All] 4911439B-4D19-9F49-A8FF-0C6E56BA246F
Domain[ROOT_All]     INFO                           xaoddata_filt.rntup.root
RootDatabase.open    INFO xaoddata_filt.rntup.root File version:63301
StorageSvc           INFO Building shape according to reflection information using shape ID for:
StorageSvc           INFO xAOD::AuxContainerBase [C87C71B3-B03F-42FC-AF99-DF497F148397]
ClassIDSvc           INFO getRegistryEntries: read 22 CLIDRegistry entries for module ALL
AthenaEventLoopMgr   INFO   ===>>>  done processing event #1, run #0 1 events processed so far  <<<===
AthenaEventLoopMgr   INFO   ===>>>  start processing event #2, run #0 1 events processed so far  <<<===
AthenaEventLoopMgr   INFO   ===>>>  done processing event #2, run #0 2 events processed so far  <<<===
AthenaEventLoopMgr   INFO   ===>>>  start processing event #3, run #0 2 events processed so far  <<<===
AthenaEventLoopMgr   INFO   ===>>>  done processing event #3, run #0 3 events processed so far  <<<===
AthenaEventLoopMgr   INFO   ===>>>  start processing event #4, run #0 3 events processed so far  <<<===
AthenaEventLoopMgr   INFO   ===>>>  done processing event #4, run #0 4 events processed so far  <<<===
AthenaEventLoopMgr   INFO   ===>>>  start processing event #5, run #0 4 events processed so far  <<<===
AthenaEventLoopMgr   INFO   ===>>>  done processing event #5, run #0 5 events processed so far  <<<===
AthenaEventLoopMgr   INFO   ===>>>  start processing event #6, run #0 5 events processed so far  <<<===
AthenaEventLoopMgr   INFO   ===>>>  done processing event #6, run #0 6 events processed so far  <<<===
AthenaEventLoopMgr   INFO   ===>>>  start processing event #7, run #0 6 events processed so far  <<<===
AthenaEventLoopMgr   INFO   ===>>>  done processing event #7, run #0 7 events processed so far  <<<===
AthenaEventLoopMgr   INFO   ===>>>  start processing event #8, run #0 7 events processed so far  <<<===
AthenaEventLoopMgr   INFO   ===>>>  done processing event #8, run #0 8 events processed so far  <<<===
AthenaEventLoopMgr   INFO   ===>>>  start processing event #9, run #0 8 events processed so far  <<<===
AthenaEventLoopMgr   INFO   ===>>>  done processing event #9, run #0 9 events processed so far  <<<===
AthenaEventLoopMgr   INFO   ===>>>  start processing event #10, run #0 9 events processed so far  <<<===
AthenaEventLoopMgr   INFO   ===>>>  done processing event #10, run #0 10 events processed so far  <<<===
AthenaEventLoopMgr   INFO   ===>>>  start processing event #11, run #0 10 events processed so far  <<<===
AthenaEventLoopMgr   INFO   ===>>>  done processing event #11, run #0 11 events processed so far  <<<===
AthenaEventLoopMgr   INFO   ===>>>  start processing event #12, run #0 11 events processed so far  <<<===
AthenaEventLoopMgr   INFO   ===>>>  done processing event #12, run #0 12 events processed so far  <<<===
AthenaEventLoopMgr   INFO   ===>>>  start processing event #13, run #0 12 events processed so far  <<<===
AthenaEventLoopMgr   INFO   ===>>>  done processing event #13, run #0 13 events processed so far  <<<===
AthenaEventLoopMgr   INFO   ===>>>  start processing event #14, run #0 13 events processed so far  <<<===
AthenaEventLoopMgr   INFO   ===>>>  done processing event #14, run #0 14 events processed so far  <<<===
AthenaEventLoopMgr   INFO   ===>>>  start processing event #15, run #0 14 events processed so far  <<<===
AthenaEventLoopMgr   INFO   ===>>>  done processing event #15, run #0 15 events processed so far  <<<===
AthenaEventLoopMgr   INFO   ===>>>  start processing event #16, run #0 15 events processed so far  <<<===
AthenaEventLoopMgr   INFO   ===>>>  done processing event #16, run #0 16 events processed so far  <<<===
AthenaEventLoopMgr   INFO   ===>>>  start processing event #17, run #0 16 events processed so far  <<<===
AthenaEventLoopMgr   INFO   ===>>>  done processing event #17, run #0 17 events processed so far  <<<===
AthenaEventLoopMgr   INFO   ===>>>  start processing event #18, run #0 17 events processed so far  <<<===
AthenaEventLoopMgr   INFO   ===>>>  done processing event #18, run #0 18 events processed so far  <<<===
AthenaEventLoopMgr   INFO   ===>>>  start processing event #19, run #0 18 events processed so far  <<<===
AthenaEventLoopMgr   INFO   ===>>>  done processing event #19, run #0 19 events processed so far  <<<===
AthenaEventLoopMgr   INFO   ===>>>  start processing event #20, run #0 19 events processed so far  <<<===
AthenaEventLoopMgr   INFO   ===>>>  done processing event #20, run #0 20 events processed so far  <<<===
ClassIDSvc           INFO getRegistryEntries: read 7 CLIDRegistry entries for module ALL
StreamStream1        INFO Metadata records written: 21
xaoddata.rn...root   INFO Database being retired...
Domain[ROOT_All]     INFO ->  Deaccess DbDatabase   READ      [ROOT_All] 285180B9-5FD4-624E-9270-CB52CC843ADD
Domain[ROOT_All]     INFO >   Deaccess DbDomain     READ      [ROOT_All] 
xaoddata_fi...root   INFO Database being retired...
Domain[ROOT_All]     INFO ->  Deaccess DbDatabase   CREATE    [ROOT_All] 4911439B-4D19-9F49-A8FF-0C6E56BA246F
Domain[ROOT_All]     INFO >   Deaccess DbDomain     UPDATE    [ROOT_All] 
ApplicationMgr       INFO Application Manager Stopped successfully
LoadReadDicts        INFO Finalizing LoadReadDicts...
AthenaPoolCnvSvc     INFO PerfStats ----------------------------------------
AthenaPoolCnvSvc     INFO PerfStats Timing Measurements for AthenaPoolCnvSvc
AthenaPoolCnvSvc     INFO PerfStats ----------------------------------------
AthenaPoolCnvSvc     INFO PerfStats | cObjR_ALL       |             144 ms |
AthenaPoolCnvSvc     INFO PerfStats | commitOutput    |              21 ms |
AthenaPoolCnvSvc     INFO PerfStats | fRep_ALL        |              23 ms |
AthenaPoolCnvSvc     INFO PerfStats | cObj_ALL        |             186 ms |
AthenaPoolCnvSvc     INFO PerfStats | cRepR_ALL       |              12 ms |
AthenaPoolCnvSvc     INFO PerfStats | cRep_ALL        |              10 ms |
AthenaPoolCnvSvc     INFO PerfStats ----------------------------------------
AthDictLoaderSvc     INFO in finalize...
DecisionSvc          INFO Finalized successfully.
ToolSvc              INFO Removing all tools created by ToolSvc
PyComponentMgr       INFO Finalizing PyComponentMgr...
ApplicationMgr       INFO Application Manager Finalized successfully
ApplicationMgr       INFO Application Manager Terminated successfully
Py:Athena            INFO leaving with code 0: "successful run"
